Homework8
…
Final Data for analyzing

print(summarize_bike_hour)

# A tibble: 365 × 14
   Date       Seasons Holiday    Rented_Bike_sum Rainfall_sum Snowfall_sum
   <date>     <fct>   <fct>                <dbl>        <dbl>        <dbl>
 1 2017-12-01 Winter  No Holiday            9539          0            0  
 2 2017-12-02 Winter  No Holiday            8523          0            0  
 3 2017-12-03 Winter  No Holiday            7222          4            0  
 4 2017-12-04 Winter  No Holiday            8729          0.1          0  
 5 2017-12-05 Winter  No Holiday            8307          0            0  
 6 2017-12-06 Winter  No Holiday            6669          1.3          8.6
 7 2017-12-07 Winter  No Holiday            8549          0           10.4
 8 2017-12-08 Winter  No Holiday            8032          0            0  
 9 2017-12-09 Winter  No Holiday            7233          0            0  
10 2017-12-10 Winter  No Holiday            3453          4.1         32.5
# ℹ 355 more rows
# ℹ 8 more variables: Temperature_mean <dbl>, Humidity_mean <dbl>,
#   Windspeed_mean <dbl>, Visibility_mean <dbl>,
#   Dew_Point_Temperature_mean <dbl>, Solar_Radiation_mean <dbl>,
#   Rainfall_mean <dbl>, Snowfall_mean <dbl>
…
# Step 2: Prepare the recipe (prep)
recipe_2_prepped <- prep(recipe_2, training = bike_train)

# Step 3: Apply the recipe to transform the training data (bake)
bike_train_transformed <- bake(recipe_2_prepped, new_data = NULL)

# View the transformed data
print(bike_train_transformed)

# A tibble: 273 × 23
   Rainfall_sum Snowfall_sum Temperature_mean Humidity_mean Windspeed_mean
          <dbl>        <dbl>            <dbl>         <dbl>          <dbl>
 1       -0.315       -0.223            1.12          0.143        -0.852 
 2       -0.315       -0.223            1.08         -0.300        -0.342 
 3        2.57        -0.223            0.954         1.54         -1.10  
 4       -0.315       -0.223            0.923         0.835         0.800 
 5       -0.315       -0.223            0.975         0.181         1.38  
 6       -0.315       -0.223            1.01          0.779         0.333 
 7       -0.190       -0.223            0.827        -0.145         1.34  
 8       -0.315       -0.223            0.786        -0.691        -0.0617
 9       -0.315       -0.223            0.896        -0.596        -0.241 
10       -0.315       -0.223            0.775        -0.738        -0.392 
# ℹ 263 more rows
# ℹ 18 more variables: Visibility_mean <dbl>, Dew_Point_Temperature_mean <dbl>,
#   Solar_Radiation_mean <dbl>, Rainfall_mean <dbl>, Snowfall_mean <dbl>,
#   Rented_Bike_sum <dbl>, Seasons_Spring <dbl>, Seasons_Summer <dbl>,
#   Seasons_Winter <dbl>, Holiday_No.Holiday <dbl>, day_type_weekend <dbl>,
#   Seasons_Spring_x_Holiday_No.Holiday <dbl>,
#   Seasons_Summer_x_Holiday_No.Holiday <dbl>, …
…
# Check the recipe
recipe_3_prepped <- prep(recipe_3, training = bike_train)
bike_train_transformed_poly <- bake(recipe_3_prepped, new_data = NULL)

# View the transformed data
print(bike_train_transformed_poly)

# A tibble: 273 × 30
   Rainfall_sum Snowfall_sum Humidity_mean Rented_Bike_sum Seasons_Spring
          <dbl>        <dbl>         <dbl>           <dbl>          <dbl>
 1       -0.315       -0.223         0.143           26010              0
 2       -0.315       -0.223        -0.300           26881              0
 3        2.57        -0.223         1.54            10802              0
 4       -0.315       -0.223         0.835           29529              0
 5       -0.315       -0.223         0.181           31114              0
 6       -0.315       -0.223         0.779           27838              0
 7       -0.190       -0.223        -0.145           30381              0
 8       -0.315       -0.223        -0.691           29813              0
 9       -0.315       -0.223        -0.596           30781              0
10       -0.315       -0.223        -0.738           31694              0
# ℹ 263 more rows
# ℹ 25 more variables: Seasons_Summer <dbl>, Seasons_Winter <dbl>,
#   Holiday_No.Holiday <dbl>, day_type_weekend <dbl>,
#   Seasons_Spring_x_Holiday_No.Holiday <dbl>,
#   Seasons_Summer_x_Holiday_No.Holiday <dbl>,
#   Seasons_Winter_x_Holiday_No.Holiday <dbl>,
#   Seasons_Spring_x_Temperature_mean <dbl>, …
…
Extract Model coefficients

Using your ‘best’ model, fit the model to the entire training data set (use the last_fit() function).

• Obtain the final model (fit on the entire training set) coefficient table using extract_fit_parsnip() and tidy().

# Extract the final model and get coefficients
final_model <- extract_fit_parsnip(final_fit$.workflow[[1]])
final_coefficients <- tidy(final_model)

print(final_coefficients)

# A tibble: 30 × 5
   term                                estimate std.error statistic   p.value
   <chr>                                  <dbl>     <dbl>     <dbl>     <dbl>
 1 (Intercept)                         13871.       3368.   4.12    0.0000522
 2 Rainfall_sum                        -1858.        708.  -2.63    0.00919  
 3 Snowfall_sum                         -344.        397.  -0.868   0.386    
 4 Humidity_mean                          -3.88     2819.  -0.00138 0.999    
 5 Seasons_Spring                       1216.       4532.   0.268   0.789    
 6 Seasons_Summer                      23354.       6988.   3.34    0.000962 
 7 Seasons_Winter                       -821.       5222.  -0.157   0.875    
 8 Holiday_No.Holiday                   7140.       3129.   2.28    0.0233   
 9 day_type_weekend                    -1772.        751.  -2.36    0.0191   
10 Seasons_Spring_x_Holiday_No.Holiday -4722.       4633.  -1.02    0.309    
# ℹ 20 more rows
